/* XPM */
static const char *open_folder_xpm[] = {
/* width height num_colors chars_per_pixel */
"    16    16        4            1",
/* colors */
". c #000000",
"# c #808000",
"a c None",
"b c #ffff00",
/* pixels */
"aaaaaaaaaaaaaaaa",
"aaaaaaaaaaaaaaaa",
"a.....aaaaaaaaaa",
"a.bbb........aaa",
"a.bbbbbbbbbb.aaa",
"a.bbbbbbbbbb.aaa",
"a.bb...........a",
"a.bb##########.a",
"a.b.##########.a",
"a.b##########.aa",
"a..##########.aa",
"a.##########.aaa",
"a...........aaaa",
"aaaaaaaaaaaaaaaa",
"aaaaaaaaaaaaaaaa",
"aaaaaaaaaaaaaaaa",
};
